{
  "project_info": {
    "project_number": "906440747652",
    "firebase_url": "https://medicol-56132.firebaseio.com",
    "project_id": "medicol-56132",
    "storage_bucket": "medicol-56132.appspot.com"
  },
  "client": [
    {
      "client_info": {
        "mobilesdk_app_id": "1:906440747652:android:0a135e82b54117c9",
        "android_client_info": {
          "package_name": "com.b00689458.ar.medicol"
        }
      },
      "oauth_client": [
        {
          "client_id": "906440747652-kg04on1vouhjgj2tflac7q4irtrlh024.apps.googleusercontent.com",
          "client_type": 1,
          "android_info": {
            "package_name": "com.b00689458.ar.medicol",
            "certificate_hash": "004325c1e64a74bca3bdfb9829220932adc8c50b"
          }
        },
        {
          "client_id": "906440747652-du0kt9u48lbvu13kk4vjbq7301s74hc7.apps.googleusercontent.com",
          "client_type": 3
        }
      ],
      "api_key": [
        {
          "current_key": "AIzaSyC-Pr78d1srD5VF24sGT4IndG8Ig-rtK4Y"
        }
      ],
      "services": {
        "analytics_service": {
          "status": 1
        },
        "appinvite_service": {
          "status": 2,
          "other_platform_oauth_client": [
            {
              "client_id": "906440747652-du0kt9u48lbvu13kk4vjbq7301s74hc7.apps.googleusercontent.com",
              "client_type": 3
            }
          ]
        },
        "ads_service": {
          "status": 2
        }
      }
    }
  ],
  "configuration_version": "1"
}